C:\Users\giulio.bacchilega\Desktop\WayFinding_C#\Wayfinding\EditorClient\build\utility\consts.js
C:\Users\giulio.bacchilega\Desktop\WayFinding_C#\Wayfinding\EditorClient\build\utility\pair-impl.js
C:\Users\giulio.bacchilega\Desktop\WayFinding_C#\Wayfinding\EditorClient\build\model\graph-node.js
C:\Users\giulio.bacchilega\Desktop\WayFinding_C#\Wayfinding\EditorClient\build\utility\list.js
C:\Users\giulio.bacchilega\Desktop\WayFinding_C#\Wayfinding\EditorClient\build\utility\array-map.js
C:\Users\giulio.bacchilega\Desktop\WayFinding_C#\Wayfinding\EditorClient\build\view\map-drawer.js
C:\Users\giulio.bacchilega\Desktop\WayFinding_C#\Wayfinding\EditorClient\build\utility\distance-calculator.js
C:\Users\giulio.bacchilega\Desktop\WayFinding_C#\Wayfinding\EditorClient\build\model\graph-road.js
C:\Users\giulio.bacchilega\Desktop\WayFinding_C#\Wayfinding\EditorClient\build\model\graph-creator.js
C:\Users\giulio.bacchilega\Desktop\WayFinding_C#\Wayfinding\EditorClient\build\controller\controller.js
C:\Users\giulio.bacchilega\Desktop\WayFinding_C#\Wayfinding\EditorClient\build\controller\browser-observable.js
C:\Users\giulio.bacchilega\Desktop\WayFinding_C#\Wayfinding\EditorClient\build\controller\fake-gps-observable.js
C:\Users\giulio.bacchilega\Desktop\WayFinding_C#\Wayfinding\EditorClient\build\controller\icon-manager.js
C:\Users\giulio.bacchilega\Desktop\WayFinding_C#\Wayfinding\EditorClient\build\controller\setup.js
